{
    "pack": {
        "description": ["",
            {
                "text": "Turn ",
                "color": "#aaaaaa"
            }, {
                "text": "D",
                "color": "dark_red"
            }, {
                "text": "y",
                "color": "dark_green"
            }, {
                "text": "e",
                "color": "dark_blue"
            }, {
                "text": " into ",
                "color": "#aaaaaa"
            }, {
                "text": "Paint Brushes",
                "color": "white"
            }, {
                "text": "!\n                     by ",
                "color": "#aaaaaa"
            }, {
                "text": "Sorrow",
                "color": "#206899"
            }, {
                "text": "Fall",
                "color": "#405E73"
            }],
        "pack_format": -1
    }
}